{
    "data": [
        {
            "id": 1,
            "commerce": "Boca 12",
            "cuit": "1111100",
            "concept1": 10,
            "concept2": 20,
            "concept3": 30,
            "concept4": 40,
            "concept5": 50,
            "concept6": 60,
            "currentBalance": 210,
            "active": 1,
            "lastSale": "4-3-2022"
        },
        {
            "id": 2,
            "commerce": "Estudiantes",
            "cuit": "22222",
            "concept1": 10,
            "concept2": 20,
            "concept3": 30,
            "concept4": 40,
            "concept5": 50,
            "concept6": 60,
            "currentBalance": 210,
            "active": 1,
            "lastSale": "4-4-2015"
        },
        {
            "id": 3,
            "commerce": "Racing",
            "cuit": "33333",
            "concept1": 10,
            "concept2": 20,
            "concept3": 30,
            "concept4": 40,
            "concept5": 50,
            "concept6": 60,
            "currentBalance": 210,
            "active": 0,
            "lastSale": "4-5-2017"
        },
        {
            "id": 4,
            "commerce": "Independiente",
            "cuit": "44444",
            "concept1": 10,
            "concept2": 20,
            "concept3": 30,
            "concept4": 40,
            "concept5": 50,
            "concept6": 60,
            "currentBalance": 210,
            "active": 0,
            "lastSale": "4-1-2022"
        },
        {
            "id": 5,
            "commerce": "Colon",
            "cuit": "55555",
            "concept1": 10,
            "concept2": 20,
            "concept3": 30,
            "concept4": 40,
            "concept5": 50,
            "concept6": 60,
            "currentBalance": 210,
            "active": 0,
            "lastSale": "4-5-2021"
        },
        {
            "id": 6,
            "commerce": "Belgrano",
            "cuit": "66666",
            "concept1": 10,
            "concept2": 20,
            "concept3": 30,
            "concept4": 40,
            "concept5": 50,
            "concept6": 60,
            "currentBalance": 210,
            "active": 0,
            "lastSale": "4-2-2022"
        },
        {
            "id": 7,
            "commerce": "Talleres",
            "cuit": "77777",
            "concept1": 10,
            "concept2": 20,
            "concept3": 30,
            "concept4": 40,
            "concept5": 50,
            "concept6": 60,
            "currentBalance": 210,
            "active": 1,
            "lastSale": "4-2-2022"
        },
        {
            "id": 8,
            "commerce": "Lanus",
            "cuit": "88888",
            "concept1": 10,
            "concept2": 20,
            "concept3": 30,
            "concept4": 40,
            "concept5": 50,
            "concept6": 60,
            "currentBalance": 210,
            "active": 1,
            "lastSale": "1-3-2022"
        },
        {
            "id": 9,
            "commerce": "Banfield 1",
            "cuit": "99999",
            "concept1": 10,
            "concept2": 20,
            "concept3": 30,
            "concept4": 40,
            "concept5": 50,
            "concept6": 60,
            "currentBalance": 210,
            "active": 1,
            "lastSale": "10-2-2022"
        },
        {
            "id": 10,
            "commerce": "Patronato",
            "cuit": "101010",
            "concept1": 10,
            "concept2": 20,
            "concept3": 30,
            "concept4": 40,
            "concept5": 50,
            "concept6": 60,
            "currentBalance": 210,
            "active": 0,
            "lastSale": "22-2-2022"
        },
        {
            "id": 11,
            "commerce": "Platense",
            "cuit": "111111",
            "concept1": 10,
            "concept2": 20,
            "concept3": 30,
            "concept4": 40,
            "concept5": 50,
            "concept6": 60,
            "currentBalance": 210,
            "active": 1,
            "lastSale": "9-2-2022"
        },
        {
            "id": 12,
            "commerce": "Dalmine",
            "cuit": "121212",
            "concept1": 10,
            "concept2": 20,
            "concept3": 30,
            "concept4": 40,
            "concept5": 50,
            "concept6": 60,
            "currentBalance": 210,
            "active": 0,
            "lastSale": "12-1-2022"
        },
        {
            "id": 13,
            "commerce": "Quilmes",
            "cuit": "131313",
            "concept1": 10,
            "concept2": 20,
            "concept3": 30,
            "concept4": 40,
            "concept5": 50,
            "concept6": 60,
            "currentBalance": 210,
            "active": 0,
            "lastSale": "22-2-2022"
        },
        {
            "id": 14,
            "commerce": "Sacachispa",
            "cuit": "141414",
            "concept1": 10,
            "concept2": 20,
            "concept3": 30,
            "concept4": 40,
            "concept5": 50,
            "concept6": 60,
            "currentBalance": 210,
            "active": 0,
            "lastSale": "23-2-2022"
        },
        {
            "id": 15,
            "commerce": "Chacarita",
            "cuit": "151515",
            "concept1": 10,
            "concept2": 20,
            "concept3": 30,
            "concept4": 40,
            "concept5": 50,
            "concept6": 60,
            "currentBalance": 210,
            "active": 0,
            "lastSale": "29-1-2022"
        },
        {
            "id": 16,
            "commerce": "Barracas",
            "cuit": "161514",
            "concept1": 10,
            "concept2": 20,
            "concept3": 30,
            "concept4": 40,
            "concept5": 50,
            "concept6": 60,
            "currentBalance": 210,
            "active": 0,
            "lastSale": "4-3-2022"
        }
    ],
    "page": 1,
    "pages": 4,
    "rowsPerPage": 4,
    "total": 1000
}
